<svg xmlns="http://www.w3.org/2000/svg" width="202" height="48" viewBox="0 0 202 48">
    <g fill="#E1635A" fill-rule="evenodd">
        <path d="M154.153 14.11c-.276 1.702.782 2.99 2.346 2.944.827 0 1.563-.368 2.299-.644.276.874.644 1.426 1.333 1.84.644.414 1.288.598 2.116.644 2.253.138 3.954-1.058 5.334-1.886.138-.092.23-.184.276-.322.046-.138.506-.368.598-.46.092-.046.092-.184.138-.276.046-.092.598-.506 1.057-.69.092-.046.184-.598-.092-.736s-.69.23-1.011.414c-.368.23-.736.368-1.012.506-.644.322-1.288.736-2.07.966-1.93.552-3.632-.184-4.138-1.61.552-.506 1.058-1.012 1.564-1.518 1.195-1.15 3.31-4.232 2.897-4.83-.276-.322-.828-.092-1.058 0-.092.046-.276 0-.368.046-.506.184-1.058.644-1.563.92-.552.322-1.058.598-1.518 1.012-1.242 1.104-2.161 2.714-2.575 4.324-1.196.276-1.978-.92-1.794-2.116 1.61-1.288 2.943-2.806 4.369-4.37.874-.966 1.518-2.024 2.161-3.082.138-.23.138-.368.23-.644s.322-.598.414-1.012c.23-.644.506-1.748.046-2.208-.276-.23-1.747.322-2.391.736-.644.414-1.242.69-1.794 1.012-.321.23-.643.644-.965.966-.322.322-.552.782-.828 1.15-1.104 1.61-1.885 3.174-2.76 4.968a22.545 22.545 0 0 0-.827 2.116c-.092.276-.092.322-.23.46-.184.276-1.011.782-1.333.92-.092.046-1.288.46-1.012 1.196.276.276 1.472-.506 2.161-.736zm9.29-4.094c.045 0 .091 0 .091.046.138.322-.138.736-.322 1.012-.505.736-1.15 1.748-1.793 2.07.23-1.334 1.104-2.346 2.023-3.128zm-2.024-6.624c.046-.092.138-.138.368-.092.184.046-.368 1.61-.69 2.3-.828 1.656-2.161 2.99-3.265 4.278.874-2.162 2.161-4.646 3.587-6.486zM194.666 25.84c-.643-.092-1.655-.414-2.253-.46-.276-.046-1.793-.276-2.667-.092-.23.046-.46.046-.69 0 1.196-.322 2.53-.46 3.909-.092-.046 0 .506.046 1.012.092h.046c.597.138.965.046 1.517-.046-.414-.322-1.333-.138-1.517-.69.23-.23.781 0 1.103 0-.138-.184-.414-.184-.552-.322.138-.046.276.092.368 0-.184-.092-.046-.138.092-.184-.368-.092-.92-.092-.873-.506.367.046 1.057.138 1.103.138.046-.046-.23-.138-.23-.23-.506-.092-1.195-.368-1.701-.598.046-.138-.092-.23-.276-.276.782.092 1.471.276 2.207.322-.138-.046.046-.092.046-.092-.046 0-.138-.046-.184-.046h.092s-.092 0-.184-.046c-.046 0-.092-.046-.138-.046-.322-.092-.873-.276-1.195-.506.598.046 1.15.092 1.701.138-1.195-.506-3.633-.46-4.92.046-.828.368-2.3.782-3.22 1.288.185-.506.507-1.196.415-1.748-.092.138-.092.414-.23.46-.046-.046.092-.276-.092-.138.092-.414.414-.828.368-1.196-.184-.092-.184-.276-.46-.322-.046 0-.046.046-.138.092.046-.092.184-.138.092-.23-.322-.046-.506-.184-.874-.092.046.184.138.322 0 .46-.552 0-.644-.506-.874-.736-.276-.046-.276.184-.46.23-.045.046 0 .414-.091.644-.184.506-.368 1.15-.644 1.656-.184.322-.414.828-.598 1.104-.414.644-.552 1.38-.966 1.932.046.23-.184.276-.276.46-.046.092-.046.276-.138.414-.184.368-.505.736-.735 1.15a385.95 385.95 0 0 1-2.208 3.266c-.46.69-.92 1.334-1.38 1.978-.183.276-.413.46-.505.736-.046.138.046.322 0 .414-.046.23-.276.414-.23.69.092.046.276.046.368.138-.138.414-.506.598-.414 1.058.23.092.414-.092.552.046.184-.184.368-.46.552-.69.184-.184.413-.552.69-.414-.139.414-.598.598-.414 1.058.23.138.367-.092.551.046.598-.644 1.058-1.38 1.748-1.886a22.491 22.491 0 0 0 1.885-2.76c.414-.46.782-.92 1.15-1.38.368-.46.644-1.012 1.012-1.518.183-.23.551-.368.827-.552.828-.644 1.472-1.196 2.483-1.61 1.058-.414 2.162-.736 3.265-.736.644.092 1.38.046 1.886.322 0 0 .046.046.092.046.92.092 1.517.23 2.3.046-.139-.184-.507-.138-.783-.184-.322 0-.23-.046-.322-.046zm-14.853 6.21c-.092-.782.46-1.288.782-1.794.046 0 .644-.828.966-.966-.598.874-1.242 1.794-1.748 2.76zm3.817-5.704c-.368.644-.782 1.242-1.334 1.794-.046-.414.506-.874.69-1.334.782-.644 1.104-1.748 1.656-2.622.046-.046-.046-.322-.046-.368.23-.322.413-.782.643-1.104.046 0 .046 0 .092.046 0 .23-.046.506-.092.552-.046.046 0 .644-.138.92-.321.782-1.011 1.564-1.471 2.116zM178.434 24.322c.505-1.242 1.287-2.162 1.839-3.312.138 0 .184-.092.276-.138-.368-.506-.736-.322-1.334-.184-.184.276-.414.506-.597.782l.413-.828c-.276-.046-.276.184-.46.138-.183.322-.505.552-.643.966-.598.368-.92 1.518-1.472 1.978.276-.46.598-.966.874-1.472.368-.598.874-1.242.966-1.932-.184-.046-.23-.276-.414-.368-.736.046-.828.736-1.288 1.104-.506.368-.736 1.012-1.15 1.38-.045.092-.045.046 0 .184-.505.69-.873 1.472-1.563 1.978-.23.598-.782.874-1.104 1.38-.505.368-.735.966-1.103 1.472-.184.276-.276.46-.414.736-.138.23-.414.368-.414.69-.552.552-1.058 1.196-1.655 1.794-.322.276-.598.598-.92.828-.552.368-1.15.874-1.702 1.196-.92.46-2.161.322-2.437-.644-.092-.368 0-.782.046-1.15.184-1.61 1.15-2.852 2.07-3.726.413-.644.965-1.15 1.425-1.794.506-.736 1.012-1.61 1.518-2.254-.046 0-.046-.046-.046-.092.413-.506.781-1.012 1.15-1.564-.093-.184.045-.322.091-.46-.322-.046-.414.322-.598.552a4.46 4.46 0 0 1-.873.782c.184-.276.413-.506.551-.736-.092 0-.046-.184-.138-.184-.551.414-1.103 1.058-1.563 1.472.46-.69.966-1.334 1.655-1.84-.092-.046-.046-.046-.046-.138.046-.092.138-.092.138-.23-.276 0-.321.276-.551.368.046-.138-.046-.138-.092-.23-.276-.046-.414.276-.644.092-.046.046-.092.138-.184.184-.046-.046-.046-.138-.138-.092-.138.184-.92.322-1.012.414-.23.138-.23.46-.276.552 0 0-.046.138-.046.276-.138.046-.092.138-.23.092-.413.644-1.241 1.104-1.517 1.84 0 .046 0 .046-.092.138-.046.046-.644 1.058-.828 1.472 0 .046-.138.276-.23.414 0-.046 0-.092-.046-.092-.276.46-.598.92-.873 1.334l-.138.138c0 .046-.69.92-.92 1.38-.046.092-.414.69-.69 1.15 0 .046-.092.276-.322.644-.138.138-.644.69-.782 1.012-.046.046-.321.46-.367.598 0 .046-.414.782-.506.874-.276.184-.414.414-.598.598-.046.69-1.012 1.058-.368 1.702.736-.552 1.288-1.334 2.023-1.886l.23-.23c.368.644.782 1.242 1.38 1.656.414-.092.644.322.92.552.138.092.367.138.551.23.506.276.874.552 1.472.69.782.138 1.334.184 1.977-.092 1.61-.598 3.311-1.656 4.323-2.622.184.368.506.644.874.828l.276.138c.46.276 1.241.506 1.977.414 0-.138.092-.276.138-.276.092-.046-.46-.368-.322-.322 0 0 .184.092.23.046 0-.046-.184-.23-.138-.23.184.046.506.276.552.276.184.046.322.046.414 0 .46.138.781-.184 1.103-.414-.368-.138-.597-.092-1.011-.276-.184-.092-.736-.368-.736-.46-.828-.23-1.38-.966-1.196-2.116.92-1.196 1.978-2.254 2.851-3.45.46-.368.736-.92 1.012-1.472.736-.506.828-1.61 1.472-2.208zm-17.015 7.866c-.184-.506.276-1.242.69-1.564-.23.414-.368 1.196-.138 1.656.184.414.644.874 1.011 1.104-.551-.138-1.38-.644-1.563-1.196zm2.989-5.06c.092-.184.184-.322.276-.506.184-.322.276-.736.46-1.058.276-.46.598-1.058.92-1.334.275-.23.643-.276.873-.552.046 0 .046 0 .092.046-.138.322-.414.506-.552.874-.138 0-.138.184-.368.138-.873 1.012-1.38 2.208-2.115 3.312-.046-.368.276-.598.414-.92zm6.484 3.864a32.677 32.677 0 0 0 4-4.37c.093-.046.093.046.139.138-.874 1.012-1.472 2.254-2.576 3.036-.46.46-.69 1.104-1.563 1.196zm1.885-.92c-.092.046-.276-.138-.23-.184 1.15-1.058 2.162-2.254 3.081-3.542.092-.046.092.046.092.092-.643.828-2.483 3.496-2.943 3.634zM160.131 26.254c.046-.828-.092-1.38-.276-2.07-.46-1.84-1.563-2.898-3.127-3.68a3.852 3.852 0 0 0-.965-.506 3.877 3.877 0 0 0-1.104-.322c-.368-.046-.69.184-1.104.138-.46-.046-.827-.46-1.471-.23-1.748.598-3.127 1.61-4.323 2.76-.046.046 0 .184-.092.23-.322.368-.873.598-1.195 1.012-.092.138-.092.276-.184.414-.092.138-.276.23-.368.414-.23.368-.414.782-.69 1.15-.506.598-.874 1.288-1.241 1.978-.23.414-.414.874-.552 1.334-.23.23-.552.598-.69.966-.138.368-.092 1.242-.092 1.518 0 .184-.092.368-.092.506 0 .092.046.23.092.368 0 .276-.092.506-.046.69.138.644.46 1.15.644 1.656.138 0 0-.322.138-.322.184.506.46.92.873 1.196.276.184.644.276.92.46.138.092.184.23.276.322.138.092.322.092.506.23s.276.322.46.414c.184.092 1.011.322 1.84.23.735-.046 1.425-.46 2.114-.414-.091 0-.321.368-.23.368 1.288-.46 2.576-.92 3.68-1.564-.23.23-.69.322-.828.644 1.563-.644 2.943-2.116 4.138-3.634a38.74 38.74 0 0 0 1.61-2.208c.644-1.058 1.241-2.438 1.38-4.048zm-14.669.46c.046.184-.644 1.242-.69 1.426-.092-.23.414-1.38.69-1.426zm2.851 9.384c.276-.368.874-.046 1.288-.092-.276.322-.874.276-1.288.092zm.92-.414c.92-.322 1.701-.736 2.621-1.058-.184.368-.644.506-1.196.782-.505.23-.827.552-1.425.276zm1.563.046c.874-.506 1.61-1.104 2.576-1.518 0-.046.046-.046.092-.046-.644.782-1.748 1.104-2.668 1.564zm3.403-4.692c-.827 1.472-2.253 2.346-4 2.898-1.61.414-3.403-.23-4.37-1.012l-.045-.046c-.414-.552-1.058-.69-.966-1.748.046-.598.368-1.196.598-1.794.138-.276.184-.552.322-.782.23-.46.506-1.012.874-1.38.643-1.564 1.471-2.99 2.62-4.094.093-.046.093-.092.23-.184.23-.184.369-.322.645-.506.69-.506 1.563-.782 2.437-1.012.552-.046 1.241.138 1.84.184.597 0 1.103.368 1.333.552.414.598 1.011 1.058 1.103 1.978 0 .184.138.368.184.552.046.322-.046.736-.092 1.012 0 .092-.046.322-.092.46-.184.46-.505 1.242-.69 1.564-.137.184-.321.552-.413.782a6.34 6.34 0 0 1-.276.736c-.092.184-.322.46-.368.506-.23.23-.414.644-.506.782 0 .046-.092.23-.138.276-.092.046-.138.184-.23.276zm2.024-.368c-.598.92-1.196 1.84-1.794 2.714.23-.92.782-2.162 1.794-2.714zm1.701-1.886c-.552 1.15-1.701 2.944-2.621 4.002.828-1.334 1.793-3.128 1.84-3.542.091-.184.321-.598.367-.736.092-.414.368-.644.506-1.012 0 .414.046.92-.092 1.288zM145.646 19.952c0-.184.046-.276.092-.414-.046-.092-.23-.138-.184-.322-.276.046-.506.322-.69.414-.046.046-.092.046-.092.092-.046.046-.138.046-.184.092-.322.368-.506.828-.781 1.288-.46.69-.828 1.334-1.196 2.07-.184.322-.276.736-.598.966-.046-.322.138-.46.23-.69.322-.69.644-1.472 1.058-2.162.506-.874 1.15-1.748 1.563-2.484.046-.138-.092-.23-.092-.414.276-.414-.184-.782-.322-1.058-.138.046-.23.276-.368.23.138-.046.23-.23.138-.414-.046.138-.138 0-.092 0-.183-.046-.275.276-.46.414-.091.046-.137-.046-.23-.046-.505.368-.735.874-1.103 1.426-.23.368-.46.69-.69 1.012-.23.322-.368.782-.552 1.15-.23.368-.46.736-.597 1.104-.276.782-.322 1.61-.736 2.346 0 .046-.138.506-.322.69.138-.552.414-1.334.644-2.116-.23.138-.23.368-.322.552-.322.828-.736 1.656-1.058 2.484-.276.69-.644 1.518-1.011 2.116-.368 1.012-1.058 1.656-1.334 2.714.092.046.23-.322.414-.46.046.092-.046.322-.092.414-.138.23-.414.736-.598 1.15-.092.184-.23.322-.276.506-.138.322-.138.644-.23.92s-.276.506-.46.736c-.368.506-.551 1.058-.92 1.518-.23.276-.367.598-.413.69-.092.276-.322.598-.368.69-.046.046-.506.92-1.012 1.104-.046.046-.092.092-.184.138-.598.92-.965 1.748-1.885 2.254-.184.092-.23.184-.322.23-.414.552-.874.92-1.656 1.104.414-.184.92-.644 1.104-.874-.092 0-.368.138-.552.23-.46.276-.322.23-.643.368a5.076 5.076 0 0 1-2.116 1.196c-.046 0-.092 0-.138.046-.276.092-.322-.046-.552-.138-.092-.046-.184-.184-.23-.276-.367-.69-.69-1.196-.413-2.162.23-.874 1.103-1.932 1.747-2.3.138-.368.506-.828.23-1.334 0-.046-.046-.138-.046-.184-.046-.69-.138-1.012-.414-1.472.092-.138.23-.184.23-.414-.092-.092-.138-.276-.184-.414 0-.092-.046-.184-.23-.23-.092-.046-.046-.23-.092-.23-.368-.046-.23.322-.46.414-.092-.046-.046-.092-.092-.092-.23.138-.597.138-.69.23-.551.828-.965 1.794-1.747 2.438 0 .184-.046.184-.138.322-.092.046-.092.138-.184.138a9.115 9.115 0 0 0-.965 1.886c-.092.276-.046.506-.138.828-.046.138-.184.276-.23.414-.138.506-.276 1.242-.23 1.794.046.644.138 1.38.414 1.978.046.092.092.138.092.184.184.23.735.874 1.15 1.012.045.046.045.138.091.184.782.598 1.886.966 3.035 1.058.046 0 .046.138.138.092 2.162-.322 3.587-1.288 5.013-2.438 1.61-1.242 2.943-2.576 4.092-4.186.46-.644.92-1.242 1.288-1.932.368-.368.598-.828.782-1.334 1.61-2.162 2.39-5.014 3.54-7.59 0-.046.092-.184.092-.184.368-1.38 1.104-2.484 1.702-3.634 1.058-1.794 1.931-3.772 3.035-5.428zM131.62 42.354c0 .092-2.069 1.702-2.207 1.748-.598.414-1.058.552-1.195.552-.138 0-1.518-.184-1.334-.322.046 0 1.15.092 1.747-.184 1.15-.46 2.392-1.472 2.897-1.932.092.046.092.092.092.138zm.414-.276c-.138-.276.506-.736.644-.736-.138.184-.414.414-.644.736zM146.704 15.628c-.046.092.46.184.551.276.092.092.046.23.138.322.598.46 1.38-.322 1.84-.506.414-.368.828-.828 1.195-1.288a.974.974 0 0 0 .138-.322c.046-.46-.413-.92-.413-1.334 0-.138.138-.276.183-.414.23-.736.276-1.38-.137-1.886-1.104-.322-2.3 1.012-2.99 1.564-.137.092-.321.184-.413.23-.23.23-.23.276-.506.46-.184.184-.736.506-.69.828.138.782.23.92.552 1.518.184.276.368.368.552.552z"/>
        <g fill-rule="nonzero">
            <path d="M10.633 9.05L7 34.718h14.026L35.189 10.89l3.909 23.828h34.995L77.68 9.05H10.633zm15.68 7.314h-8.185l-.46 3.542h6.76L23.877 24h-6.76l-1.15 8.28h-5.242l2.713-20.286H27.05l-.736 4.37zm21.154 1.61c.23.276.782.552 1.702.782 2.253.69 3.862 1.334 4.782 1.932.92.644 1.564 1.38 1.931 2.254.368.874.46 1.84.322 2.898a7.076 7.076 0 0 1-1.333 3.404 6.965 6.965 0 0 1-2.851 2.3c-1.15.506-2.575.69-4.23.644-2.944-.138-4.875-.874-5.841-2.162-.598-.782-.966-1.702-1.196-2.76l4.967-2.346c0 .92.138 1.656.414 2.162.46.828 1.195 1.242 2.207 1.288.782.046 1.38-.138 1.84-.506.46-.368.735-.828.781-1.38a1.897 1.897 0 0 0-.414-1.38c-.322-.414-1.195-.828-2.575-1.242-2.253-.69-3.817-1.564-4.69-2.576-.874-1.012-1.242-2.3-1.058-3.818.138-1.012.506-1.932 1.103-2.806.644-.874 1.472-1.518 2.576-1.978 1.103-.46 2.529-.644 4.322-.598 2.208.092 3.817.644 4.875 1.61.69.644 1.15 1.564 1.333 2.668l-4.874 1.978c-.046-.874-.23-1.564-.598-1.978-.368-.414-.966-.644-1.701-.69-.598-.046-1.104.092-1.472.368a1.478 1.478 0 0 0-.598 1.058c-.046.322.046.644.276.874zm26.028-1.61h-5.15l-2.162 15.87h-5.38l2.161-15.87h-5.61l.644-4.324h16.095l-.598 4.324z"/>
            <path d="M20.566 43.274l12.462-20.976 3.587 20.976zM45.582 38.582c-1.012 0-1.748.506-1.886 1.288-.138.874.46 1.15 1.012 1.334l.506.138c.506.138.598.276.552.46-.046.368-.552.46-.828.46-.276 0-.506-.092-.644-.23-.138-.184-.138-.414-.138-.414v-.092H43.1v.092c0 .046-.092.598.275 1.058.276.322.736.506 1.334.506.828 0 1.84-.322 2.023-1.288.138-.92-.551-1.242-1.103-1.38l-.506-.138c-.414-.138-.46-.276-.46-.414.046-.276.276-.414.69-.414.23 0 .414.046.506.184.138.184.092.414.092.414v.092h1.057v-.092c0-.046.092-.598-.276-1.058-.138-.368-.551-.506-1.15-.506zM53.537 40.33h-1.38l.277-1.656h-1.012l-.782 4.37h1.058l.322-1.84h1.333l-.276 1.84h1.012l.736-4.37h-1.012zM60.71 38.582c-1.149 0-1.93.644-2.114 1.656l-.184 1.196c-.092.506 0 .92.23 1.196.276.322.735.506 1.287.506 1.15 0 1.932-.644 2.116-1.656l.183-1.196c.092-.506 0-.92-.23-1.196-.275-.322-.735-.506-1.287-.506zm-1.287 2.898l.184-1.196c.092-.552.414-.828.966-.828.276 0 .46.046.552.184.092.138.138.322.092.598l-.184 1.196c-.092.552-.414.828-.966.828-.276 0-.46-.046-.552-.184-.092-.138-.138-.322-.092-.598zM69.908 39.088c-.23-.276-.69-.414-1.242-.414h-2.023l-.736 4.37h1.012l.276-1.748h1.012c1.057 0 1.701-.46 1.885-1.288.046-.368 0-.69-.184-.92zm-2.391.46h.965c.276 0 .46.046.552.138.046.046.092.138.046.276-.046.23-.138.46-.781.46h-.92l.138-.874z"/>
        </g>
        <path fill-rule="nonzero" d="M102.65 36.236a.46.46 0 0 1-.46-.46V12.224c0-.23.184-.46.46-.46s.46.184.46.46v23.598c0 .23-.23.414-.46.414z"/>
        <path fill-rule="nonzero" d="M114.422 24.414h-23.59a.46.46 0 0 1 0-.92h23.59c.23 0 .46.184.46.46-.046.23-.23.46-.46.46z"/>
    </g>
</svg>
